<?xml version="1.0" encoding="utf-8"?>
<!-- Generator: Adobe Illustrator 17.1.0, SVG Export Plug-In . SVG Version: 6.00 Build 0)  -->
<!DOCTYPE svg PUBLIC "-//W3C//DTD SVG 1.1//EN" "http://www.w3.org/Graphics/SVG/1.1/DTD/svg11.dtd">
<svg version="1.1" id="Capa_1" xmlns="http://www.w3.org/2000/svg" xmlns:xlink="http://www.w3.org/1999/xlink" x="0px" y="0px"
	 viewBox="0 0 130 20" enable-background="new 0 0 130 20" xml:space="preserve">
<g>
	<g>
		<path fill="#19B5BC" d="M31.4,18.8h-1.6l-2.2-5c-0.3-0.6-0.8-2-1.3-3.4c0,1.3-0.1,2.8-0.1,3.3L26,18.8h-2.2l0.8-13.3h1.8l3.3,8.3
			c0.2,0.6,0.6,1.3,0.8,2c0.3-0.7,0.6-1.4,0.8-2l3.4-8.3h1.8l0.8,13.3h-2.2l-0.2-5.1c0-0.6-0.1-2-0.1-3.2c-0.5,1.3-1,2.7-1.2,3.2
			L31.4,18.8z"/>
		<path fill="#19B5BC" d="M45.4,9.1h2.2v5c0,3.1,0.9,4.2,0.9,4.2l-1.7,0.7c0,0-0.8-0.7-1-2.2c-0.7,1.5-2.1,2.1-3.5,2.1
			c-2.1,0-2.9-1.3-2.9-3.4V9.1h2.2v6.4c0,1.1,0.4,1.8,1.3,1.8c1.2,0,2.4-1.4,2.4-3.4V9.1z"/>
		<path fill="#19B5BC" d="M50.2,16.7V5l2.2-0.4v11.9c0,0.6,0.2,0.8,0.7,0.8c0.5,0,1-0.2,1-0.2l0.3,1.4c0,0-0.8,0.4-2.1,0.4
			C51,18.9,50.2,17.9,50.2,16.7z"/>
		<path fill="#19B5BC" d="M54.5,9.1h1.8l0.4-2.3l1.8-0.4v2.7h2.4l-0.3,1.6h-2.1v5.8c0,0.7,0.4,0.8,0.9,0.8c0.7,0,1.5-0.3,1.5-0.3
			l0.4,1.5c0,0-1,0.4-2.5,0.4c-1.4,0-2.5-0.6-2.5-2.2v-6h-1.8V9.1z"/>
		<path fill="#19B5BC" d="M65,6c0,0.8-0.5,1.4-1.3,1.4c-0.8,0-1.3-0.6-1.3-1.3c0-0.8,0.5-1.4,1.4-1.4C64.5,4.7,65,5.3,65,6z
			 M62.5,16.7V9.1h2.2v7.4c0,0.6,0.2,0.8,0.5,0.8c0.2,0,0.5,0,0.5,0l0.2,1.4c0,0-0.5,0.3-1.4,0.3C63.3,18.9,62.5,17.9,62.5,16.7z"/>
		<path fill="#19B5BC" d="M71.7,8.8C74,8.8,75,10,75,11.6c0,1.9-2.2,3.5-5.6,3.5c0.1,1.2,0.6,2.2,2.2,2.2c1.1,0,2.8-0.7,2.8-0.7
			l0.6,1.4c0,0-1.7,0.9-3.7,0.9c-3,0-4.2-1.9-4.2-4.8C67,10.7,69.1,8.8,71.7,8.8z M69.3,13.7c2.5-0.1,3.4-1.2,3.4-2.1
			c0-0.8-0.5-1.3-1.2-1.3C69.8,10.3,69.4,12.1,69.3,13.7z"/>
		<path fill="#19B5BC" d="M82.7,9.6l-0.7,1.5c0,0-1.3-0.6-2.3-0.6c-0.6,0-1.1,0.3-1.1,0.9c0,0.7,0.5,1.3,1.6,1.7
			c1.6,0.6,2.6,1.3,2.6,3c0,1.5-1.3,2.9-3.4,2.9C77.8,19,76,18,76,18l0.7-1.6c0,0,1.6,0.9,2.6,0.9c0.9,0,1.3-0.4,1.3-1
			c0-0.7-0.5-1.3-1.4-1.6c-2-0.7-2.8-1.6-2.8-3.2c0-1.5,1.4-2.7,3.3-2.7C81.2,8.8,82.7,9.6,82.7,9.6z"/>
		<path fill="#19B5BC" d="M83.8,9.1h1.8L86,6.8l1.8-0.4v2.7h2.4l-0.3,1.6h-2.1v5.8c0,0.7,0.4,0.8,0.9,0.8c0.7,0,1.5-0.3,1.5-0.3
			l0.4,1.5c0,0-1,0.4-2.5,0.4c-1.4,0-2.5-0.6-2.5-2.2v-6h-1.8V9.1z"/>
		<path fill="#19B5BC" d="M95.8,8.8c2.3,0,3.3,1.2,3.3,2.8c0,1.9-2.2,3.5-5.6,3.5c0.1,1.2,0.6,2.2,2.2,2.2c1.1,0,2.8-0.7,2.8-0.7
			l0.6,1.4c0,0-1.7,0.9-3.7,0.9c-3,0-4.2-1.9-4.2-4.8C91.1,10.7,93.1,8.8,95.8,8.8z M93.4,13.7c2.5-0.1,3.4-1.2,3.4-2.1
			c0-0.8-0.5-1.3-1.2-1.3C93.9,10.3,93.4,12.1,93.4,13.7z"/>
		<path fill="#19B5BC" d="M99.6,9.1h1.8l0.4-2.3l1.8-0.4v2.7h2.4l-0.3,1.6h-2.1v5.8c0,0.7,0.4,0.8,0.9,0.8c0.7,0,1.5-0.3,1.5-0.3
			l0.4,1.5c0,0-1,0.4-2.5,0.4c-1.4,0-2.5-0.6-2.5-2.2v-6h-1.8V9.1z"/>
		<path fill="#19B5BC" d="M110.1,6c0,0.8-0.5,1.4-1.3,1.4c-0.8,0-1.3-0.6-1.3-1.3c0-0.8,0.5-1.4,1.4-1.4
			C109.6,4.7,110.1,5.3,110.1,6z M107.7,16.7V9.1h2.2v7.4c0,0.6,0.2,0.8,0.5,0.8c0.2,0,0.5,0,0.5,0l0.2,1.4c0,0-0.5,0.3-1.4,0.3
			C108.4,18.9,107.7,17.9,107.7,16.7z"/>
		<path fill="#19B5BC" d="M118,11.3c-0.4-0.4-0.7-0.8-1.4-0.8c-0.8,0-2.1,0.3-2.1,3.3s1.2,3.5,2.1,3.5c0.7,0,1.7-0.3,1.9-0.4
			l0.5,1.4c-0.1,0.1-1.1,0.6-2.8,0.6c-3,0-4.3-1.9-4.3-4.8c0-3.4,2-5.3,4.5-5.3c1.2,0,2.1,0.5,2.6,1.3L118,11.3z"/>
		<path fill="#19B5BC" d="M128.4,14.1c0,3.1,0.9,4.2,0.9,4.2l-1.7,0.7c0,0-0.9-0.8-1-2.4c-0.4,1.6-1.4,2.4-3,2.4
			c-2.4,0-3.6-1.9-3.6-4.8c0-3,1.9-5.2,4.7-5.2c1.6,0,3.6,0.5,3.8,0.6V14.1z M126.2,13.5v-2.8c-0.3-0.1-0.9-0.2-1.3-0.2
			c-2,0-2.5,1.4-2.5,3.4c0,1.8,0.1,3.5,1.6,3.5C125.2,17.3,126.2,15.4,126.2,13.5z"/>
	</g>
	<g>
		<defs>
			<rect id="SVGID_1_" x="0.7" y="1" width="17.9" height="17.9"/>
		</defs>
		<clipPath id="SVGID_2_">
			<use xlink:href="#SVGID_1_"  overflow="visible"/>
		</clipPath>
		<g clip-path="url(#SVGID_2_)">
			<path fill="#FFFFFF" d="M13.8,17.5C13.8,17.5,13.8,17.5,13.8,17.5c0,0-0.1,0-0.2,0c-3.6,0-6.5,2.8-6.7,6.4c0-0.1,0-0.1,0-0.2v7.1
				l6.4,0c0,0,0,0,0,0c0.1,0,0.2,0,0.3,0c3.6,0,6.5-2.8,6.7-6.3c0,0.1,0,0.1,0,0.2l0-7.3H13.8z"/>
			<path fill="#FFFFFF" d="M30.1,24.3C30.1,24.3,30.1,24.3,30.1,24.3c0,0,0-0.1,0-0.2c0-3.6-2.8-6.5-6.4-6.7c0.1,0,0.1,0,0.2,0
				l-7.1,0v6.4c0,0,0,0,0,0c0,0.1,0,0.2,0,0.3c0,3.6,2.8,6.5,6.3,6.7c-0.1,0-0.1,0-0.2,0l7.3,0L30.1,24.3z"/>
			<path fill="#FFFFFF" d="M23.3,21.2C23.3,21.2,23.3,21.2,23.3,21.2c0,0,0.1,0,0.2,0c3.6,0,6.5-2.8,6.7-6.4c0,0.1,0,0.1,0,0.2V7.8
				l-6.4,0c0,0,0,0,0,0c-0.1,0-0.2,0-0.3,0c-3.6,0-6.5,2.8-6.7,6.3c0-0.1,0-0.1,0-0.2v7.3H23.3z"/>
			<path fill="#FFFFFF" d="M7,14.3C7,14.3,7,14.3,7,14.3c0,0,0,0.1,0,0.2c0,3.6,2.8,6.5,6.4,6.7c-0.1,0-0.1,0-0.2,0h7.1v-6.4
				c0,0,0,0,0,0c0-0.1,0-0.2,0-0.3c0-3.6-2.8-6.5-6.3-6.7c0.1,0,0.1,0,0.2,0L7,7.8L7,14.3z"/>
			<path fill="#FFFFFF" d="M14.1,21.4C14.1,21.4,14.1,21.4,14.1,21.4c0,0-0.1,0.1-0.1,0.1c-2.5,2.5-2.6,6.6-0.2,9.2
				c0,0-0.1-0.1-0.1-0.1l5,5.1l4.6-4.6c0,0,0,0,0,0c0.1-0.1,0.1-0.1,0.2-0.2c2.5-2.5,2.6-6.6,0.3-9.2c0.1,0.1,0.1,0.1,0.2,0.1
				l-5.1-5.1L14.1,21.4z"/>
			<path fill="#FFFFFF" d="M30.4,14.7C30.4,14.7,30.4,14.7,30.4,14.7c0,0-0.1-0.1-0.1-0.1c-2.5-2.5-6.6-2.6-9.2-0.2
				c0,0,0.1-0.1,0.1-0.1l-5,5l4.6,4.6c0,0,0,0,0,0c0.1,0.1,0.1,0.1,0.2,0.2c2.5,2.5,6.6,2.6,9.2,0.3c0,0.1-0.1,0.1-0.1,0.2l5.1-5.1
				L30.4,14.7z"/>
			<path fill="#FFFFFF" d="M23.3,17.2C23.3,17.2,23.3,17.2,23.3,17.2c0,0,0.1-0.1,0.1-0.1c2.5-2.5,2.6-6.6,0.2-9.2
				c0,0,0.1,0.1,0.1,0.1l-5-5l-4.6,4.6c0,0,0,0,0,0C14.1,7.6,14,7.6,14,7.7c-2.5,2.5-2.6,6.6-0.3,9.2c-0.1-0.1-0.1-0.1-0.2-0.1
				l5.1,5.1L23.3,17.2z"/>
			<path fill="#FFFFFF" d="M7,23.9C7,23.9,7,23.9,7,23.9C7,23.9,7,24,7.1,24c2.5,2.5,6.6,2.6,9.2,0.2c0,0-0.1,0.1-0.1,0.1l5-5
				l-4.6-4.6c0,0,0,0,0,0c-0.1-0.1-0.1-0.1-0.2-0.2C14,12.1,10,12,7.3,14.3c0.1-0.1,0.1-0.1,0.1-0.2l-5.1,5.1L7,23.9z"/>
		</g>
		<g clip-path="url(#SVGID_2_)">
			<path opacity="0.25" fill="#13888D" d="M13.8,17.5C13.8,17.5,13.8,17.5,13.8,17.5c0,0-0.1,0-0.2,0c-3.6,0-6.5,2.8-6.7,6.4
				c0-0.1,0-0.1,0-0.2v7.1l6.4,0c0,0,0,0,0,0c0.1,0,0.2,0,0.3,0c3.6,0,6.5-2.8,6.7-6.3c0,0.1,0,0.1,0,0.2l0-7.3H13.8z"/>
			<path opacity="0.25" fill="#AA3E51" d="M30.1,24.3C30.1,24.3,30.1,24.3,30.1,24.3c0,0,0-0.1,0-0.2c0-3.6-2.8-6.5-6.4-6.7
				c0.1,0,0.1,0,0.2,0l-7.1,0v6.4c0,0,0,0,0,0c0,0.1,0,0.2,0,0.3c0,3.6,2.8,6.5,6.3,6.7c-0.1,0-0.1,0-0.2,0l7.3,0L30.1,24.3z"/>
			<path opacity="0.25" fill="#EE2A7B" d="M23.3,21.2C23.3,21.2,23.3,21.2,23.3,21.2c0,0,0.1,0,0.2,0c3.6,0,6.5-2.8,6.7-6.4
				c0,0.1,0,0.1,0,0.2V7.8l-6.4,0c0,0,0,0,0,0c-0.1,0-0.2,0-0.3,0c-3.6,0-6.5,2.8-6.7,6.3c0-0.1,0-0.1,0-0.2v7.3H23.3z"/>
			<path opacity="0.25" fill="#638DBC" d="M7,14.3C7,14.3,7,14.3,7,14.3c0,0,0,0.1,0,0.2c0,3.6,2.8,6.5,6.4,6.7c-0.1,0-0.1,0-0.2,0
				h7.1v-6.4c0,0,0,0,0,0c0-0.1,0-0.2,0-0.3c0-3.6-2.8-6.5-6.3-6.7c0.1,0,0.1,0,0.2,0L7,7.8L7,14.3z"/>
			<path opacity="0.25" fill="#7C49B7" d="M14.1,21.4C14.1,21.4,14.1,21.4,14.1,21.4c0,0-0.1,0.1-0.1,0.1c-2.5,2.5-2.6,6.6-0.2,9.2
				c0,0-0.1-0.1-0.1-0.1l5,5.1l4.6-4.6c0,0,0,0,0,0c0.1-0.1,0.1-0.1,0.2-0.2c2.5-2.5,2.6-6.6,0.3-9.2c0.1,0.1,0.1,0.1,0.2,0.1
				l-5.1-5.1L14.1,21.4z"/>
			<path opacity="0.25" fill="#F7728A" d="M30.4,14.7C30.4,14.7,30.4,14.7,30.4,14.7c0,0-0.1-0.1-0.1-0.1c-2.5-2.5-6.6-2.6-9.2-0.2
				c0,0,0.1-0.1,0.1-0.1l-5,5l4.6,4.6c0,0,0,0,0,0c0.1,0.1,0.1,0.1,0.2,0.2c2.5,2.5,6.6,2.6,9.2,0.3c0,0.1-0.1,0.1-0.1,0.2l5.1-5.1
				L30.4,14.7z"/>
			<path opacity="0.25" fill="#DA1C5C" d="M23.3,17.2C23.3,17.2,23.3,17.2,23.3,17.2c0,0,0.1-0.1,0.1-0.1c2.5-2.5,2.6-6.6,0.2-9.2
				c0,0,0.1,0.1,0.1,0.1l-5-5l-4.6,4.6c0,0,0,0,0,0C14.1,7.6,14,7.6,14,7.7c-2.5,2.5-2.6,6.6-0.3,9.2c-0.1-0.1-0.1-0.1-0.2-0.1
				l5.1,5.1L23.3,17.2z"/>
			<path opacity="0.25" fill="#19B5BC" d="M7,23.9C7,23.9,7,23.9,7,23.9C7,23.9,7,24,7.1,24c2.5,2.5,6.6,2.6,9.2,0.2
				c0,0-0.1,0.1-0.1,0.1l5-5l-4.6-4.6c0,0,0,0,0,0c-0.1-0.1-0.1-0.1-0.2-0.2C14,12.1,10,12,7.3,14.3c0.1-0.1,0.1-0.1,0.1-0.2
				l-5.1,5.1L7,23.9z"/>
		</g>
	</g>
</g>
</svg>
